{
  "content": [
    {
      "path": "ContentInfo/vagar-placeholder/Thumbnail.jpg",
      "size": 13520,
      "date": 132398981780000000
    },
    {
      "path": "manifest.json",
      "size": 271,
      "date": 132445182440399317
    },
    {
      "path": "scenery/airport-ekvg.bgl",
      "size": 28938,
      "date": 132445218535350110
    },
    {
      "path": "scenery/EKVG-BOUNDARY.BGL",
      "size": 3506,
      "date": 132445182440279433
    }
  ]
}